lab02-covid-inst.utf8
…
owid_covid_data$location %>% unique() %>% setdiff(countries, .)

## character(0)

latest_data <- owid_covid_data %>% 
  group_by(location) %>%
  arrange(date) %>%
  filter(!is.na(total_tests)) %>% 
  slice_tail()
latest_data

## # A tibble: 94 x 41
## # Groups:   location [94]
##    iso_code continent location date       total_cases new_cases new_cases_smoot
##    <chr>    <chr>     <chr>    <date>           <dbl>     <dbl>            <dbl>
##  1 ARG      South Am Argenti 2020-09-05      451185     12026          10129. 
##  2 AUS      Oceania   Austral 2020-09-09       26374        52             79.3
##  3 AUT      Europe    Austria  2020-09-10       31104       904            417. 
##  4 BHR      Asia      Bahrain  2020-09-09       56076         0            586. 
##  5 BGD      Asia      Banglad 2020-09-06      323565      1950           2091. 
##  6 BLR      Europe    Belarus  2020-09-09       73208       177            178  
##  7 BEL      Europe    Belgium  2020-09-08       89497       537            496  
##  8 BOL      South Am Bolivia  2020-09-08      121604       835            715. 
##  9 BRA      South Am Brazil   2020-08-31     3862311     16158          36647. 
## 10 BGR      Europe    Bulgaria 2020-09-09       17313       167            150. 
## #  with 84 more rows, and 34 more variables: total_deaths <dbl>,
## #   new_deaths <dbl>, new_deaths_smoothed <dbl>, total_cases_per_million <dbl>,
## #   new_cases_per_million <dbl>, new_cases_smoothed_per_million <dbl>,
## #   total_deaths_per_million <dbl>, new_deaths_per_million <dbl>,
## #   new_deaths_smoothed_per_million <dbl>, new_tests <dbl>, total_tests <dbl>,
## #   total_tests_per_thousand <dbl>, new_tests_per_thousand <dbl>,
## #   new_tests_smoothed <dbl>, new_tests_smoothed_per_thousand <dbl>,
## #   tests_per_case <dbl>, positive_rate <dbl>, tests_units <chr>,
## #   stringency_index <dbl>, population <dbl>, population_density <dbl>,
…
