Classification
…
---

1. The outcome (`Group`): ASD, SIB, NEU
2. Concentrations of various metabolites in a blood sample:

```r
autism %>% select(-1, -last_col())
```

```
## # A tibble: 206 x 24
##   Methion.   SAM   SAH `SAM/SAH` `% DNA methylat… `8-OHG` Adenosine Homocysteine Cysteine
##      <dbl> <dbl> <dbl>     <dbl>            <dbl>   <dbl>     <dbl>        <dbl>    <dbl>
## 1     17.3  56.2 15.2       3.69             3.35   0.055     0.103         4.48     215.
## 2     14.9  37.2  7.58      4.91             3.04   0.045     0.055         4.31     163.
## 3     15.9  37.9  9.87      3.84             2.81   0.058     0.071         6.21     159.
## 4     18.7  79.2 24.5       3.23             4.24   0.085     0.079         7.15     226.
## 5     21.5  77.6 19.2       4.04             3.49   0.041     0.058         3.82     201.
## 6     18.1  67.6 12.8       5.30             3.01   0.156     0.091         4.03     205.
## # … with 200 more rows, and 15 more variables: `Glu.-Cys.` <dbl>, `Cys.-Gly.` <dbl>, tGSH <dbl>,
## #   fGSH <dbl>, GSSG <dbl>, `fGSH/GSSG` <dbl>, `tGSH/GSSG` <dbl>, Chlorotyrosine <dbl>,
## #   Nitrotyrosine <dbl>, Tyrosine <dbl>, Tryptophane <dbl>, fCystine <dbl>, fCysteine <dbl>,
## #   `fCystine/fCysteine` <dbl>, `% oxidized` <dbl>
```
…
<img src="w11d2-classification_files/figure-html/show-tree-1.png" width="100%" style="display: block; margin: auto;" />

---

### What do the *predictions* look like?

```r
model %>% predict(data, type = "prob")
```

```
## # A tibble: 159 x 2
##   .pred_ASD .pred_NEU
##       <dbl>     <dbl>
## 1     0.959    0.0411
## 2     0.959    0.0411
## 3     0.959    0.0411
## 4     0.959    0.0411
## 5     0.959    0.0411
## 6     0.959    0.0411
## # … with 153 more rows
```
…
<img src="w11d2-classification_files/figure-html/vis-logisticreg-model-1.png" width="100%" style="display: block; margin: auto;" />
]

---

```r
model %>% predict(data, type = "prob")
```

```
## # A tibble: 159 x 2
##   .pred_ASD    .pred_NEU
##       <dbl>        <dbl>
## 1     0.912 0.0876      
## 2     0.999 0.000964    
## 3     1.00  0.0000000524
## 4     1.00  0.0000000369
## 5     0.988 0.0124      
## 6     1.00  0.0000222   
## # … with 153 more rows
```
…
