Modeling: Introduction
…
---

## Classification example: Can a blood test diagnose autism?

We'll use an example from a [2017 PLOS Computational Biology paper](https://journals.plos.org/ploscompbiol/article?id=10.1371/journal.pcbi.1005385)

```r
autism
```

```
# A tibble: 206 × 26
  Group Methion.   SAM   SAH `SAM/SAH` `% DNA methylatio… `8-OHG`
  <chr>    <dbl> <dbl> <dbl>     <dbl>              <dbl>   <dbl>
1 ASD       17.3  56.2 15.2       3.69               3.35   0.055
2 ASD       14.9  37.2  7.58      4.91               3.04   0.045
3 ASD       15.9  37.9  9.87      3.84               2.81   0.058
4 ASD       18.7  79.2 24.5       3.23               4.24   0.085
5 ASD       21.5  77.6 19.2       4.04               3.49   0.041
6 ASD       18.1  67.6 12.8       5.30               3.01   0.156
# … with 200 more rows, and 19 more variables: Adenosine <dbl>,
#   Homocysteine <dbl>, Cysteine <dbl>, Glu.-Cys. <dbl>,
#   Cys.-Gly. <dbl>, tGSH <dbl>, fGSH <dbl>, GSSG <dbl>,
#   fGSH/GSSG <dbl>, tGSH/GSSG <dbl>, Chlorotyrosine <dbl>,
#   Nitrotyrosine <dbl>, Tyrosine <dbl>, Tryptophane <dbl>,
#   fCystine <dbl>, fCysteine <dbl>, fCystine/fCysteine <dbl>,
#   % oxidized <dbl>, Vineland ABC <dbl>
```
…
---

1. The outcome (`Group`): ASD, SIB, NEU
2. Concentrations of various metabolites in a blood sample:

```r
autism %>% select(-1, -last_col())
```

```
# A tibble: 206 × 24
  Methion.   SAM   SAH `SAM/SAH` `% DNA methylation` `8-OHG`
     <dbl> <dbl> <dbl>     <dbl>               <dbl>   <dbl>
1     17.3  56.2 15.2       3.69                3.35   0.055
2     14.9  37.2  7.58      4.91                3.04   0.045
3     15.9  37.9  9.87      3.84                2.81   0.058
4     18.7  79.2 24.5       3.23                4.24   0.085
5     21.5  77.6 19.2       4.04                3.49   0.041
6     18.1  67.6 12.8       5.30                3.01   0.156
# … with 200 more rows, and 18 more variables: Adenosine <dbl>,
#   Homocysteine <dbl>, Cysteine <dbl>, Glu.-Cys. <dbl>,
#   Cys.-Gly. <dbl>, tGSH <dbl>, fGSH <dbl>, GSSG <dbl>,
#   fGSH/GSSG <dbl>, tGSH/GSSG <dbl>, Chlorotyrosine <dbl>,
#   Nitrotyrosine <dbl>, Tyrosine <dbl>, Tryptophane <dbl>,
#   fCystine <dbl>, fCysteine <dbl>, fCystine/fCysteine <dbl>,
#   % oxidized <dbl>
```
…
<img src="w07d1-modeling-intro_files/figure-html/show-tree-1.png" width="60%" style="display: block; margin: auto;" />

---

### What do the *predictions* look like?

```r
model %>% predict(data, type = "prob")
```

```
# A tibble: 159 × 2
  .pred_ASD .pred_NEU
      <dbl>     <dbl>
1     0.959    0.0411
2     0.959    0.0411
3     0.959    0.0411
4     0.959    0.0411
5     0.959    0.0411
6     0.959    0.0411
# … with 153 more rows
```
…
