…
etc. We could merge those together like this:


```r
gm_combined <- bind_rows(
  year_1952 = gm_1952,
  year_1957 = gm_1957,
  .id = "year"
)
gm_combined
```

```
## # A tibble: 284 × 6
##    year      country     continent lifeExp      pop gdpPercap
##    <chr>     <fct>       <fct>       <dbl>    <int>     <dbl>
##  1 year_1952 Afghanistan Asia         28.8  8425333      779.
##  2 year_1952 Albania     Europe       55.2  1282697     1601.
##  3 year_1952 Algeria     Africa       43.1  9279525     2449.
##  4 year_1952 Angola      Africa       30.0  4232095     3521.
##  5 year_1952 Argentina   Americas     62.5 17876956     5911.
##  6 year_1952 Australia   Oceania      69.1  8691212    10040.
##  7 year_1952 Austria     Europe       66.8  6927772     6137.
##  8 year_1952 Bahrain     Asia         50.9   120447     9867.
##  9 year_1952 Bangladesh  Asia         37.5 46886859      684.
## 10 year_1952 Belgium     Europe       68    8730405     8343.
## # … with 274 more rows
```

We'd then want to convert that `year` column into a number. Two approaches: first the lazy one:


```r
gm_combined %>% mutate(year = parse_number(year))
```

```
## # A tibble: 284 × 6
##     year country     continent lifeExp      pop gdpPercap
##    <dbl> <fct>       <fct>       <dbl>    <int>     <dbl>
##  1  1952 Afghanistan Asia         28.8  8425333      779.
##  2  1952 Albania     Europe       55.2  1282697     1601.
##  3  1952 Algeria     Africa       43.1  9279525     2449.
##  4  1952 Angola      Africa       30.0  4232095     3521.
##  5  1952 Argentina   Americas     62.5 17876956     5911.
##  6  1952 Australia   Oceania      69.1  8691212    10040.
##  7  1952 Austria     Europe       66.8  6927772     6137.
##  8  1952 Bahrain     Asia         50.9   120447     9867.
##  9  1952 Bangladesh  Asia         37.5 46886859      684.
## 10  1952 Belgium     Europe       68    8730405     8343.
## # … with 274 more rows
```

And then the more principled one:


```r
gm_combined %>% 
  separate(year, into = c(NA, "year")) %>% 
  mutate(year = as.numeric(year)) # or pass `convert = TRUE` to separate
```

```
## # A tibble: 284 × 6
##     year country     continent lifeExp      pop gdpPercap
##    <dbl> <fct>       <fct>       <dbl>    <int>     <dbl>
##  1  1952 Afghanistan Asia         28.8  8425333      779.
##  2  1952 Albania     Europe       55.2  1282697     1601.
##  3  1952 Algeria     Africa       43.1  9279525     2449.
##  4  1952 Angola      Africa       30.0  4232095     3521.
##  5  1952 Argentina   Americas     62.5 17876956     5911.
##  6  1952 Australia   Oceania      69.1  8691212    10040.
##  7  1952 Austria     Europe       66.8  6927772     6137.
##  8  1952 Bahrain     Asia         50.9   120447     9867.
##  9  1952 Bangladesh  Asia         37.5 46886859      684.
## 10  1952 Belgium     Europe       68    8730405     8343.
## # … with 274 more rows
```
…
```r
getColumnLabels <- function(df) {
  tibble(
    name = names(df),
    label = map_chr(names(df), ~ attr(df[[.]], "label"))
  )
}
getColumnLabels(atp_w34)
```

```
## # A tibble: 140 × 2
##    name            label                                                        
##    <chr>           <chr>                                                        
##  1 QKEY            Unique ID USE THIS TO MERGE WAVES                            
##  2 Device_Type_W34 Wave 34 New Device Type                                      
##  3 LANGUAGE_W34    Language                                                     
##  4 FORM_W34        FORM Assignment                                              
##  5 SCI1_W34        SCI1. Overall, do you think science has made life easier or …
##  6 SCI2A_W34       SCI2A. Do you think science has had a mostly positive or mos…
##  7 SCI2B_W34       SCI2B. Do you think science has had a mostly positive or mos…
##  8 SCI2C_W34       SCI2C. Do you think science has had a mostly positive or mos…
##  9 SCI3A_W34       SCI3A. In your opinion, do you think government investments …
## 10 SCI3B_W34       SCI3B. In your opinion, do you think government investments …
## # … with 130 more rows
```
…
```r
atp_w34_wrangled <- atp_w34 %>% 
  mutate(
    party = as_factor(F_PARTY_FINAL),
    party_lean = as_factor(F_PARTYLN_FINAL),
    age = as_factor(F_AGECAT_FINAL))
atp_w34_wrangled %>% select(party, party_lean)
```

```
## # A tibble: 2,537 × 2
##    party       party_lean          
##    <fct>       <fct>               
##  1 Republican  <NA>                
##  2 Democrat    <NA>                
##  3 Democrat    <NA>                
##  4 Independent The Republican Party
##  5 Republican  <NA>                
##  6 Republican  <NA>                
##  7 Democrat    <NA>                
##  8 Republican  <NA>                
##  9 Independent The Republican Party
## 10 Republican  <NA>                
## # … with 2,527 more rows
```
…
```r
name_as_label <- function(df, cols_to_rename) {
  new_names <- list()
  for (col in cols_to_rename) {
    new_names[[attr(df[[col]], "label")]] = col
  }
  df %>% rename(!!as_vector(new_names))
}

atp_w34 %>% 
  name_as_label(cols_to_rename = c("F_PARTY_FINAL", "Device_Type_W34", "LANGUAGE_W34"))
```

```
## # A tibble: 2,537 × 140
##      QKEY Wave 34 New …¹ Langu…² FORM_…³ SCI1_…⁴ SCI2A…⁵ SCI2B…⁶ SCI2C…⁷ SCI3A…⁸
##     <dbl>      <dbl+lbl> <dbl+l> <dbl+l> <dbl+l> <dbl+l> <dbl+l> <dbl+l> <dbl+l>
##  1 100314 1 [Mobile pho… 9 [Eng… 1 [For… 1 [Eas… 1 [Mos… 1 [Mos… 1 [Mos… 1 [Gov…
##  2 100363 1 [Mobile pho… 9 [Eng… 2 [For… 1 [Eas… 2 [Mos… 1 [Mos… 1 [Mos… 1 [Gov…
##  3 100588 1 [Mobile pho… 9 [Eng… 1 [For… 1 [Eas… 1 [Mos… 1 [Mos… 2 [Mos… 1 [Gov…
##  4 100637 3 [Desktop]    9 [Eng… 1 [For… 1 [Eas… 1 [Mos… 1 [Mos… 1 [Mos… 2 [Gov…
##  5 101224 3 [Desktop]    9 [Eng… 1 [For… 1 [Eas… 1 [Mos… 1 [Mos… 1 [Mos… 2 [Gov…
##  6 101322 1 [Mobile pho… 9 [Eng… 1 [For… 1 [Eas… 2 [Mos… 2 [Mos… 2 [Mos… 2 [Gov…
##  7 101400 1 [Mobile pho… 9 [Eng… 1 [For… 1 [Eas… 1 [Mos… 1 [Mos… 1 [Mos… 1 [Gov…
##  8 101437 3 [Desktop]    9 [Eng… 1 [For… 1 [Eas… 2 [Mos… 2 [Mos… 1 [Mos… 2 [Gov…
##  9 101472 3 [Desktop]    9 [Eng… 1 [For… 1 [Eas… 1 [Mos… 1 [Mos… 1 [Mos… 1 [Gov…
## 10 101493 1 [Mobile pho… 9 [Eng… 1 [For… 1 [Eas… 1 [Mos… 1 [Mos… 1 [Mos… 1 [Gov…
## # … with 2,527 more rows, 131 more variables: SCI3B_W34 <dbl+lbl>,
## #   SCI3C_W34 <dbl+lbl>, SCI4_W34 <dbl+lbl>, SCI5_W34 <dbl+lbl>,
## #   EAT1_W34 <dbl+lbl>, EAT2_W34 <dbl+lbl>, FUD30A_W34 <dbl+lbl>,
## #   FUD30B_W34 <dbl+lbl>, FUD30C_W34 <dbl+lbl>, FUD30D_W34 <dbl+lbl>,
## #   EAT3A_W34 <dbl+lbl>, EAT3B_W34 <dbl+lbl>, EAT3C_W34 <dbl+lbl>,
## #   EAT3D_W34 <dbl+lbl>, EAT3E_W34 <dbl+lbl>, EAT3F_W34 <dbl+lbl>,
## #   EAT3G_W34 <dbl+lbl>, EAT3H_W34 <dbl+lbl>, EAT3I_W34 <dbl+lbl>, …
```
…
Add more variables to `count` to get cross-tabulations:


```r
atp_w34_wrangled %>% 
  count(party, age, wt = WEIGHT_W34) %>% 
  group_by(age) %>% # Get party membership within each age range
  mutate(proportion = n / sum(n))
```

```
## # A tibble: 23 × 4
## # Groups:   age [5]
##    party       age        n proportion
##    <fct>       <fct>  <dbl>      <dbl>
##  1 Republican  18-29  68.0       0.132
##  2 Republican  30-49 173.        0.209
##  3 Republican  50-64 198.        0.289
##  4 Republican  65+   177.        0.353
##  5 Republican  <NA>    2.23      0.573
##  6 Democrat    18-29 128.        0.248
##  7 Democrat    30-49 287.        0.345
##  8 Democrat    50-64 233.        0.340
##  9 Democrat    65+   157.        0.312
## 10 Independent 18-29 172.        0.334
## # … with 13 more rows
```
…
