Welcome to DATA 202!
…
* Study examples of how data might cause harm
* Study examples of how harm might be mitigated or revealed

---

## A worked example

.floating-source[Erik Voeten "Data and Analyses of Voting in the UN General Assembly" Routledge Handbook of International Organization, edited by Bob Reinalda (published May 27, 2013)]

```r
un_uk_us_tr
```

```
## # A tibble: 1,212 × 4
## # Groups:   country, year [219]
##   country  year issue                percent_yes
##   <chr>   <dbl> <fct>                      <dbl>
## 1 Turkey   1946 Colonialism                0.8  
## 2 Turkey   1946 Economic development       0.6  
## 3 Turkey   1946 Human rights               0    
## 4 Turkey   1947 Colonialism                0.222
## 5 Turkey   1947 Economic development       0.5  
## 6 Turkey   1947 Palestinian conflict       0.143
## # … with 1,206 more rows
```
…
