How to Make a Predictive Model
…
.pull-left[

```r
train_predictions <- 
  my_trained_model %>% 
    predict(ames_train)
train_predictions
```

```
## # A tibble: 1,809 x 1
##     .pred
##     <dbl>
## 1 115287.
## 2 156986.
## 3 200732.
## 4 194610.
## 5 210156.
## 6 199231.
## # … with 1,803 more rows
```
…
