Text Classification and Bias
…
---

```r
name_sentiments <- 
  py$NAMES_BY_ETHNICITY %>% enframe("ethnicity", "name") %>% unnest(name) %>% 
  rowwise() %>% 
  mutate(sentiment = py$text_to_sentiment(glue("My name is {name}")))
name_sentiments %>% arrange(sentiment)
```

```
# A tibble: 160 × 3
# Rowwise: 
  ethnicity   name    sentiment
  <chr>       <chr>       <dbl>
1 Black       Latisha    -0.996
2 Black       Latoya     -0.938
3 Black       Deion      -0.936
4 Arab/Muslim Sana       -0.924
5 Arab/Muslim Nour       -0.817
6 Arab/Muslim Malak      -0.801
# … with 154 more rows
```
…
