Hyperparameters and Cross Validation
…
## How to do CV?

1. Declare the splitting strategy:

```r
ames_resamples <- ames_train %>% vfold_cv(v = 10)
```

```r
ames_resamples
```

```
#  10-fold cross-validation 
# A tibble: 10 × 2
  splits             id    
  <list>             <chr> 
1 <split [1447/161]> Fold01
2 <split [1447/161]> Fold02
3 <split [1447/161]> Fold03
4 <split [1447/161]> Fold04
5 <split [1447/161]> Fold05
6 <split [1447/161]> Fold06
# … with 4 more rows
```
…
1. Declare the splitting strategy
2. Fit on each resample, evaluate using a set of metrics.

```r
model3_samples <- model3_spec %>%
* fit_resamples(
    Sale_Price ~ Latitude + Longitude,
*   resamples = ames_resamples,
    metrics = metric_set(mae))
model3_samples %>% collect_metrics(summarize = FALSE)
```

```
# A tibble: 10 × 5
  id     .metric .estimator .estimate .config             
  <chr>  <chr>   <chr>          <dbl> <chr>               
1 Fold01 mae     standard        29.0 Preprocessor1_Model1
2 Fold02 mae     standard        36.6 Preprocessor1_Model1
3 Fold03 mae     standard        34.4 Preprocessor1_Model1
4 Fold04 mae     standard        31.8 Preprocessor1_Model1
5 Fold05 mae     standard        32.0 Preprocessor1_Model1
6 Fold06 mae     standard        27.3 Preprocessor1_Model1
# … with 4 more rows
```
…
