Lab 07: Making Predictive Models
…
Try re-running the fit. Do the coefficients change?

Try re-running the initial_split and then the fit. Do the coefficients change?

Try changing the seed, then re-running. What changes?

How well did it do?

We can tell the model to make predictions on data that it saw already (the training set):

my_trained_model %>% 
  predict(ames_train)

## # A tibble: 1,608 x 1
##      .pred
##      <dbl>
##  1 112561.
##  2 159325.
##  3 191725.
##  4 189025.
##  5 210625.
##  6 194533.
##  7 174013.
##  8 160621.
##  9 178009.
## 10 369926.
## #  with 1,598 more rows

Discuss the following questions with your team; write a succinct summary of your observations.

How many predictions did it make? Why might that make sense?

Look at the number that the model predicted for the first home sale. What would you type into a calculator in order to get that number? You will need to look at both the coefficients and the data (ames_train).

How good were those predictions? To be able to compare the actual sale prices with the predicted prices, we need to get the two things side-by-side in the same table. To do that, we can use bind_cols:

my_trained_model %>% 
  predict(ames_train) %>% 
  bind_cols(ames_train %>% select(Sale_Price))

## # A tibble: 1,608 x 2
##      .pred Sale_Price
##      <dbl>      <int>
##  1 112561.     105000
##  2 159325.     172000
##  3 191725.     189900
##  4 189025.     195500
##  5 210625.     189000
##  6 194533.     175900
##  7 174013.     180400
##  8 160621.     171500
##  9 178009.     212000
## 10 369926.     538000
## #  with 1,598 more rows
…
