Grammar of Data Transformation
…
and see detailed descriptions [here](https://introds.org/hw/hw-02/hw-02-bike-crash.html).

---

## Select columns

.midi[

```r
select(ncbikecrash, county, bike_age)
```

```
## # A tibble: 7,467 x 2
##    county      bike_age
##    <chr>       <chr>   
##  1 Wayne       52      
##  2 Vance       66      
##  3 Lincoln     33      
##  4 Columbus    52      
##  5 New Hanover 22      
##  6 Robeson     15      
##  7 Richmond    41      
##  8 Wake        14      
##  9 Columbus    16      
## 10 Craven      54      
## # … with 7,457 more rows
```
…
---

## Data wrangling, step-by-step

.midi[
.pull-left[
Select:

```r
ncbikecrash %>%
  select(county, bike_age)
```

```
## # A tibble: 7,467 x 2
##    county      bike_age
##    <chr>       <chr>   
##  1 Wayne       52      
##  2 Vance       66      
##  3 Lincoln     33      
##  4 Columbus    52      
##  5 New Hanover 22      
##  6 Robeson     15      
##  7 Richmond    41      
##  8 Wake        14      
##  9 Columbus    16      
## 10 Craven      54      
## # … with 7,457 more rows
```
]
.pull-right[
Select, then arrange:

```r
ncbikecrash %>%
  select(county, bike_age) %>%
  arrange(bike_age)
```

```
## # A tibble: 7,467 x 2
##    county      bike_age
##    <chr>       <chr>   
##  1 New Hanover 0       
##  2 Carteret    1       
##  3 Guilford    1       
##  4 Pitt        10      
##  5 Cumberland  10      
##  6 Carteret    10      
##  7 Hoke        10      
##  8 Martin      10      
##  9 New Hanover 10      
## 10 Onslow      10      
## # … with 7,457 more rows
```
…
--

.pull-left[
- Start with the data frame `ncbikecrash`
]
.pull-right[

```r
*ncbikecrash %>%
  select(county, bike_age) %>%
  arrange(bike_age)
```

```
## # A tibble: 7,467 x 2
##    county      bike_age
##    <chr>       <chr>   
##  1 New Hanover 0       
##  2 Carteret    1       
##  3 Guilford    1       
##  4 Pitt        10      
##  5 Cumberland  10      
##  6 Carteret    10      
##  7 Hoke        10      
##  8 Martin      10      
##  9 New Hanover 10      
## 10 Onslow      10      
## # … with 7,457 more rows
```
…
.pull-left[
- Start with the data frame `ncbikecrash`,
- then we `select` the variables `county` and `bike_age`,
]
.pull-right[

```r
ncbikecrash %>%
* select(county, bike_age) %>%
  arrange(bike_age)
```

```
## # A tibble: 7,467 x 2
##    county      bike_age
##    <chr>       <chr>   
##  1 New Hanover 0       
##  2 Carteret    1       
##  3 Guilford    1       
##  4 Pitt        10      
##  5 Cumberland  10      
##  6 Carteret    10      
##  7 Hoke        10      
##  8 Martin      10      
##  9 New Hanover 10      
## 10 Onslow      10      
## # … with 7,457 more rows
```
…
.pull-left[
- Start with the data frame `ncbikecrash`,
- then we `select` the variables `county` and `bike_age`,
- and then we `arrange` the data frame by `bike_age` in ascending order.
]
.pull-right[

```r
ncbikecrash %>%
  select(county, bike_age) %>%
* arrange(bike_age)
```

```
## # A tibble: 7,467 x 2
##    county      bike_age
##    <chr>       <chr>   
##  1 New Hanover 0       
##  2 Carteret    1       
##  3 Guilford    1       
##  4 Pitt        10      
##  5 Cumberland  10      
##  6 Carteret    10      
##  7 Hoke        10      
##  8 Martin      10      
##  9 New Hanover 10      
## 10 Onslow      10      
## # … with 7,457 more rows
```
…
class: center, middle

[Exercise: Hotel Wrangling](https://rsconnect.calvin.edu:3939/content/105)

---

## `select` to keep variables

```r
ncbikecrash %>%
* select(locality, speed_limit)
```

```
## # A tibble: 7,467 x 2
##    locality                     speed_limit 
##    <chr>                        <chr>       
##  1 Rural (<30% Developed)       50 - 55  MPH
##  2 Mixed (30% To 70% Developed) 30 - 35  MPH
##  3 Rural (<30% Developed)       50 - 55  MPH
##  4 Urban (>70% Developed)       30 - 35  MPH
##  5 Urban (>70% Developed)       <NA>        
##  6 Rural (<30% Developed)       50 - 55  MPH
##  7 Mixed (30% To 70% Developed) 30 - 35  MPH
##  8 Urban (>70% Developed)       30 - 35  MPH
##  9 Rural (<30% Developed)       30 - 35  MPH
## 10 Urban (>70% Developed)       20 - 25  MPH
## # … with 7,457 more rows
```

---

## `select` to exclude variables

```r
ncbikecrash %>%
* select(-object_id)
```

```
## # A tibble: 7,467 x 52
##    city  county region development locality on_road rural_urban speed_limit
##    <chr> <chr>  <chr>  <chr>       <chr>    <chr>   <chr>       <chr>      
##  1 None… Wayne  Coast… Farms, Woo… Rural (… SR 1915 Rural       50 - 55  M…
##  2 Hend… Vance  Piedm… Residential Mixed (… NICHOL… Urban       30 - 35  M…
##  3 None… Linco… Piedm… Farms, Woo… Rural (… US 321  Rural       50 - 55  M…
##  4 Whit… Colum… Coast… Commercial  Urban (… W BURK… Urban       30 - 35  M…
##  5 Wilm… New H… Coast… Residential Urban (… RACINE… Urban       <NA>       
##  6 None… Robes… Coast… Farms, Woo… Rural (… SR 1513 Rural       50 - 55  M…
##  7 None… Richm… Piedm… Residential Mixed (… SR 1903 Rural       30 - 35  M…
##  8 Rale… Wake   Piedm… Commercial  Urban (… PERSON… Urban       30 - 35  M…
##  9 Whit… Colum… Coast… Residential Rural (… FLOWER… Urban       30 - 35  M…
## 10 New … Craven Coast… Residential Urban (… SUTTON… Urban       20 - 25  M…
## # … with 7,457 more rows, and 44 more variables: traffic_control <chr>,
## #   weather <chr>, workzone <chr>, bike_age <chr>, bike_age_group <chr>,
## #   bike_alcohol <chr>, bike_alcohol_drugs <chr>, bike_direction <chr>,
## #   bike_injury <chr>, bike_position <chr>, bike_race <chr>, bike_sex <chr>,
## #   driver_age <chr>, driver_age_group <chr>, driver_alcohol <chr>,
## #   driver_alcohol_drugs <chr>, driver_est_speed <chr>, driver_injury <chr>,
## #   driver_race <chr>, driver_sex <chr>, driver_vehicle_type <chr>,
## #   crash_alcohol <chr>, crash_date <chr>, crash_day <chr>, crash_group <chr>,
## #   crash_hour <dbl>, crash_location <chr>, crash_month <chr>,
…
---

## `select` variables with certain characteristics

```r
ncbikecrash %>%
* select(starts_with("bike_"))
```

```
## # A tibble: 7,467 x 9
##    bike_age bike_age_group bike_alcohol bike_alcohol_dr… bike_direction
##    <chr>    <chr>          <chr>        <chr>            <chr>         
##  1 52       50-59          No           <NA>             With Traffic  
##  2 66       60-69          No           <NA>             With Traffic  
##  3 33       30-39          No           <NA>             With Traffic  
##  4 52       50-59          Yes          <NA>             <NA>          
##  5 22       20-24          No           <NA>             Facing Traffic
##  6 15       11-15          No           <NA>             With Traffic  
##  7 41       40-49          No           <NA>             Facing Traffic
##  8 14       11-15          No           <NA>             <NA>          
##  9 16       16-19          No           <NA>             Facing Traffic
## 10 54       50-59          No           <NA>             With Traffic  
## # … with 7,457 more rows, and 4 more variables: bike_injury <chr>,
## #   bike_position <chr>, bike_race <chr>, bike_sex <chr>
```

---

## `select` variables with certain characteristics

```r
ncbikecrash %>%
* select(ends_with("age"))
```

```
## # A tibble: 7,467 x 2
##    bike_age driver_age
##    <chr>    <chr>     
##  1 52       34        
##  2 66       <NA>      
##  3 33       37        
##  4 52       55        
##  5 22       25        
##  6 15       17        
##  7 41       <NA>      
##  8 14       50        
##  9 16       32        
## 10 54       69        
## # … with 7,457 more rows
```
…
---

## `arrange` in ascending / descending order

.pull-left[

```r
ncbikecrash %>%
  select(ends_with("age")) %>%
* arrange(bike_age)
```

```
## # A tibble: 7,467 x 2
##    bike_age driver_age
##    <chr>    <chr>     
##  1 0        47        
##  2 1        70+       
##  3 1        61        
##  4 10       30        
##  5 10       19        
##  6 10       22        
##  7 10       18        
##  8 10       27        
##  9 10       53        
## 10 10       <NA>      
## # … with 7,457 more rows
```
]
.pull-right[

```r
ncbikecrash %>%
  select(ends_with("age")) %>%
* arrange(desc(bike_age))
```

```
## # A tibble: 7,467 x 2
##    bike_age driver_age
##    <chr>    <chr>     
##  1 9        23        
##  2 9        35        
##  3 9        70+       
##  4 9        41        
##  5 9        53        
##  6 9        18        
##  7 9        45        
##  8 9        19        
##  9 9        70+       
## 10 9        59        
## # … with 7,457 more rows
```
…
---

## `filter` to select a subset of rows

Crashes in Durham County

```r
ncbikecrash %>%
* filter(county == "Durham")
```

```
## # A tibble: 340 x 53
##    object_id city  county region development locality on_road rural_urban
##        <dbl> <chr> <chr>  <chr>  <chr>       <chr>    <chr>   <chr>      
##  1      2452 Durh… Durham Piedm… Residential Urban (… <NA>    Urban      
##  2      2441 Durh… Durham Piedm… Commercial  Urban (… <NA>    Urban      
##  3      2466 Durh… Durham Piedm… Commercial  Urban (… <NA>    Urban      
##  4       549 Durh… Durham Piedm… Residential Urban (… PARK A… Urban      
##  5       598 Durh… Durham Piedm… Residential Urban (… BELT S… Urban      
##  6       603 Durh… Durham Piedm… Residential Urban (… HINSON… Urban      
##  7      3974 Durh… Durham Piedm… Commercial  Urban (… <NA>    Urban      
##  8      7134 Durh… Durham Piedm… Commercial  Urban (… <NA>    Urban      
##  9      1670 Durh… Durham Piedm… Commercial  Urban (… INFINI… Urban      
## 10      1773 Durh… Durham Piedm… Residential Urban (… <NA>    Urban      
## # … with 330 more rows, and 45 more variables: speed_limit <chr>,
## #   traffic_control <chr>, weather <chr>, workzone <chr>, bike_age <chr>,
## #   bike_age_group <chr>, bike_alcohol <chr>, bike_alcohol_drugs <chr>,
## #   bike_direction <chr>, bike_injury <chr>, bike_position <chr>,
## #   bike_race <chr>, bike_sex <chr>, driver_age <chr>, driver_age_group <chr>,
## #   driver_alcohol <chr>, driver_alcohol_drugs <chr>, driver_est_speed <chr>,
## #   driver_injury <chr>, driver_race <chr>, driver_sex <chr>,
## #   driver_vehicle_type <chr>, crash_alcohol <chr>, crash_date <chr>,
## #   crash_day <chr>, crash_group <chr>, crash_hour <dbl>, crash_location <chr>,
…
## `distinct` to filter for unique rows

... and `arrange` to order alphabetically

.pull-left[

```r
ncbikecrash %>% 
* distinct(county) %>%
  arrange(county)
```

```
## # A tibble: 101 x 1
##    county   
##    <chr>    
##  1 Alamance 
##  2 Alexander
##  3 Alleghany
##  4 Anson    
##  5 Ashe     
##  6 Avery    
##  7 Beaufort 
##  8 Bertie   
##  9 Bladen   
## 10 Brunswick
## # … with 91 more rows
```
]
.pull-right[

```r
ncbikecrash %>% 
  select(county, city) %>% 
* distinct() %>%
  arrange(county, city)
```

```
## # A tibble: 391 x 2
##    county    city              
##    <chr>     <chr>             
##  1 Alamance  Alamance          
##  2 Alamance  Burlington        
##  3 Alamance  Elon              
##  4 Alamance  Elon College      
##  5 Alamance  Gibsonville       
##  6 Alamance  Graham            
##  7 Alamance  Green Level       
##  8 Alamance  Mebane            
##  9 Alamance  None - Rural Crash
## 10 Alexander None - Rural Crash
## # … with 381 more rows
```
…
