Joining data from multiple sources
…
- Don't confuse with `%>%` or `==`

```r
nobel %>% filter(country == c("USA", "France"))
```

(doesn't work!)

```r
nobel %>% filter(country %in% c("USA", "France"))
```

```
# A tibble: 388 × 26
     id firstname surname    year category  affiliation     city 
  <dbl> <chr>     <chr>     <dbl> <chr>     <chr>           <chr>
1     4 Henri     Becquerel  1903 Physics   École Polytech… Paris
2     5 Pierre    Curie      1903 Physics   École municipa… Paris
3     6 Marie     Curie      1911 Chemistry Sorbonne Unive… Paris
4    11 Albert A. Michelson  1907 Physics   University of … Chic…
5    12 Gabriel   Lippmann   1908 Physics   Sorbonne Unive… Paris
6    14 Ferdinand Braun      1909 Physics   Strasbourg Uni… Stra…
# … with 382 more rows, and 19 more variables: country <chr>,
#   born_date <date>, died_date <date>, gender <chr>,
#   born_city <chr>, born_country <chr>,
#   born_country_code <chr>, died_city <chr>,
#   died_country <chr>, died_country_code <chr>,
#   overall_motivation <chr>, share <dbl>, motivation <chr>,
#   born_country_original <chr>, born_city_original <chr>, …
```
…
---

## Extension: Multiple matching rows

.panelset[

.panel[.panel-name[professions_multi]

```r
professions_multi
```

```
# A tibble: 12 × 2
  name              profession   
  <chr>             <chr>        
1 Ada Lovelace      Mathematician
2 Marie Curie       Physicist    
3 Marie Curie       Chemist      
4 Janaki Ammal      Botanist     
5 Chien-Shiung Wu   Physicist    
6 Katherine Johnson Mathematician
# … with 6 more rows
```
…
.panel[.panel-name[notability_multi]

```r
notability_multi
```

```
# A tibble: 13 × 2
  name         known_for                                
  <chr>        <chr>                                    
1 Ada Lovelace first computer algorithm                 
2 Marie Curie  theory of radioactivity                  
3 Marie Curie  discovery of elements polonium and radium
4 Marie Curie  first woman to win a Nobel Prize         
5 Janaki Ammal hybrid species                           
6 Janaki Ammal biodiversity protection                  
# … with 7 more rows
```
…
