Practicing and Extending Joins
…
```r
flights %>% 
  drop_na(arr_delay) %>% 
  group_by(carrier) %>% 
  summarize(avg_delay = mean(arr_delay)) %>% 
  arrange(desc(avg_delay)) %>% 
  left_join(airlines, by = "carrier") %>% 
  select(name, avg_delay)
```

```
# A tibble: 16 × 2
  name                        avg_delay
  <chr>                           <dbl>
1 Frontier Airlines Inc.           21.9
2 AirTran Airways Corporation      20.1
3 ExpressJet Airlines Inc.         15.8
4 Mesa Airlines Inc.               15.6
5 SkyWest Airlines Inc.            11.9
6 Envoy Air                        10.8
# … with 10 more rows
```
…
