Modeling Process
…
.pull-left[

```r
train_predictions <- 
  my_trained_model %>% 
    predict(ames_train) %>% 
    bind_cols(ames_train) # Put back the original data

train_predictions
```

```
# A tibble: 1,809 × 82
  .pred MS_SubClass  MS_Zoning Lot_Frontage Lot_Area Street Alley
  <dbl> <fct>        <fct>            <dbl>    <int> <fct>  <fct>
1  118. One_Story_1… Resident…           65     7150 Pave   No_A…
2  155. One_Story_1… Resident…            0    10710 Pave   No_A…
3  194. One_Story_P… Resident…            0     3621 Pave   No_A…
4  118. One_Story_1… Resident…           50     5000 Pave   No_A…
5  297. Two_Story_1… Resident…          105    13693 Pave   No_A…
6  118. One_Story_1… Resident…          109     8724 Pave   No_A…
# … with 1,803 more rows, and 75 more variables:
#   Lot_Shape <fct>, Land_Contour <fct>, Utilities <fct>,
#   Lot_Config <fct>, Land_Slope <fct>, Neighborhood <fct>,
#   Condition_1 <fct>, Condition_2 <fct>, Bldg_Type <fct>,
#   House_Style <fct>, Overall_Qual <fct>, Overall_Cond <fct>,
#   Year_Built <int>, Year_Remod_Add <int>, Roof_Style <fct>,
#   Roof_Matl <fct>, Exterior_1st <fct>, Exterior_2nd <fct>, …
```
…
