Tidying Data
…
.footnote[
Source: [FiveThirtyEight](https://projects.fivethirtyeight.com/biden-approval-rating/)
]

---

## Data

```r
approval
```

```
# A tibble: 510 × 4
  subgroup date       approval disapproval
  <chr>    <date>        <dbl>       <dbl>
1 Voters   2021-10-04     45.9        48.7
2 Adults   2021-10-04     44.7        46.6
3 Voters   2021-10-03     45.9        48.7
4 Adults   2021-10-03     44.9        48.1
5 Adults   2021-10-02     44.8        47.8
6 Voters   2021-10-02     45.9        48.7
# … with 504 more rows
```
…
## Pivot

```r
approval_longer <- approval %>%
  pivot_longer(
    cols = c(approval, disapproval),
    names_to = "rating_type",
    values_to = "rating_value"
  )

approval_longer
```

```
# A tibble: 1,020 × 4
  subgroup date       rating_type rating_value
  <chr>    <date>     <chr>              <dbl>
1 Voters   2021-10-04 approval            45.9
2 Voters   2021-10-04 disapproval         48.7
3 Adults   2021-10-04 approval            44.7
4 Adults   2021-10-04 disapproval         46.6
5 Voters   2021-10-03 approval            45.9
6 Voters   2021-10-03 disapproval         48.7
# … with 1,014 more rows
```
…
<img src="img/gapminder_pop.png" width="100%" style="display: block; margin: auto;" />

Source: https://www.gapminder.org/data/documentation/gd003/

---

## We want...

```r
gm_pop_wide <- read_csv("data/GM-Population - Dataset - v6 - data-pop-gmv6-in-columns.csv", skip = 2, show_col_types = FALSE)
gm_pop_wide %>% distinct(geo, name)
```

```
# A tibble: 204 × 2
  geo   name               
  <chr> <chr>              
1 afg   Afghanistan        
2 alb   Albania            
3 dza   Algeria            
4 and   Andorra            
5 ago   Angola             
6 atg   Antigua and Barbuda
# … with 198 more rows
```
…
class: middle

# Case Study: is college worth it?

---

```r
# https://www.insidehighered.com/news/2019/06/10/new-data-show-economic-value-earning-bachelors-degree-remains-high
# https://www.newyorkfed.org/medialibrary/media/research/college-labor-market/labor-market-for-recent-college-grads.xlsx?la=en
labor_fed <- read_csv("data/college-labor-data.csv", show_col_types = FALSE)
labor_fed
```

```
# A tibble: 31 × 5
  Date   `Bachelor's degree… `Bachelor's degr… `Bachelor's degre…
  <chr>                <dbl>             <dbl>              <dbl>
1 1/1/90               35369             46311              59434
2 1/1/91               33077             43723              57030
3 1/1/92               33208             44277              55347
4 1/1/93               32250             43000              55542
5 1/1/94               31303             41912              54137
6 1/1/95               29727             40769              52660
# … with 25 more rows, and 1 more variable:
#   High school diploma: median <dbl>
```
…
