Feature Engineering and Review
…
```
## # A tibble: 11 x 4
##   variable                   type    role      source  
##   <chr>                      <chr>   <chr>     <chr>   
## 1 Latitude                   numeric predictor original
## 2 Longitude                  numeric predictor original
## 3 Year_Sold                  numeric predictor original
## 4 Gr_Liv_Area                numeric predictor original
## 5 Sale_Price                 numeric outcome   original
## 6 Neighborhood_College_Creek numeric predictor derived 
## # … with 5 more rows
```

---

```r
ames_recipe %>% bake(new_data = ames_train)
```

```
## # A tibble: 1,608 x 11
##   Latitude Longitude Year_Sold Gr_Liv_Area Sale_Price Neighborhood_Co… Neighborhood_Ol…
##      <dbl>     <dbl>     <dbl>       <dbl>      <dbl>            <dbl>            <dbl>
## 1     1.07     0.876      1.61      -1.20        5.02           -0.329           -0.295
## 2     1.05     0.890      1.61      -0.317       5.24           -0.329           -0.295
## 3     1.51     0.145      1.61       0.298       5.28           -0.329           -0.295
## 4     1.51     0.146      1.61       0.247       5.29           -0.329           -0.295
## 5     1.42     0.140      1.61       0.657       5.28           -0.329           -0.295
## 6     1.38     0.221      1.61       0.351       5.25           -0.329           -0.295
## # … with 1,602 more rows, and 4 more variables: Neighborhood_Edwards <dbl>,
## #   Neighborhood_Gilbert <dbl>, Neighborhood_Sawyer <dbl>, Neighborhood_other <dbl>
```
