Visualising numerical and categorical data
…
.panelset[
.panel[.panel-name[Counting]

```r
loan_proportions <- loans %>% 
  group_by(homeownership, grade) %>% 
  summarize(count = n()) %>% 
  group_by(homeownership) %>% 
  mutate(prop = count / sum(count))
loan_proportions
```

```
## # A tibble: 21 × 4
## # Groups:   homeownership [3]
##   homeownership grade count    prop
##   <fct>         <ord> <int>   <dbl>
## 1 MORTGAGE      A      1285 0.268  
## 2 MORTGAGE      B      1499 0.313  
## 3 MORTGAGE      C      1234 0.258  
## 4 MORTGAGE      D       587 0.123  
## 5 MORTGAGE      E       148 0.0309 
## 6 MORTGAGE      F        32 0.00668
## # … with 15 more rows
```
…
