Midterm (backup version)
…
## # A tibble: 5 x 5
##   manufacturer carline_name          cty   hwy   cmb
##   <chr>        <chr>               <dbl> <dbl> <dbl>
## 1 ACURA        NSX                    17    24    20
## 2 ACURA        NSX                    17    24    20
## 3 AUDI         TT ROADSTER            20    28    23
## 4 AUDI         TT ROADSTER QUATTRO    20    29    23
## 5 AUDI         TT ROADSTER QUATTRO    22    27    24

First problem: each car may be reported several times in the EPA dataset, once for each different engine option or transmission type. We could work out some of that data from the trim column, but for a first pass, lets just take the average mileages for a given carline_name.

Make a table called fuel_eco_avg that gives the average cty, hwy, and cmb fuel economy for each manufacturer and carline_name. While youre at it, use more sensible names: city, highway, and combined. The result should look like:

## # A tibble: 540 x 5
## # Groups:   manufacturer [43]
##    manufacturer carline_name    city highway combined
##    <chr>        <chr>          <dbl>   <dbl>    <dbl>
##  1 ACURA        MDX 4WD         17      23       19  
##  2 ACURA        NSX             17      24       20  
##  3 ACURA        RL              18      26       21  
##  4 ACURA        RSX             25      33       28  
##  5 ACURA        TL              20      29       23  
##  6 ACURA        TSX             21.5    30.5     24.5
##  7 ASTON MARTIN DB9             11      19       14  
##  8 ASTON MARTIN DB9 VOLANTE     11      18       14  
##  9 ASTON MARTIN V12 VANQUISH S  11      17       13  
## 10 AUDI         A4              22      29.7     24.7
## #  with 530 more rows
…
