Fundamentals of Data Visualization
…
---

count: false

.panel1-health-and-wealth-auto[

```r
*gapminder
```
]
 
.panel2-health-and-wealth-auto[

```
## # A tibble: 1,704 × 6
##   country     continent  year lifeExp      pop gdpPercap
##   <fct>       <fct>     <int>   <dbl>    <int>     <dbl>
## 1 Afghanistan Asia       1952    28.8  8425333      779.
## 2 Afghanistan Asia       1957    30.3  9240934      821.
## 3 Afghanistan Asia       1962    32.0 10267083      853.
## 4 Afghanistan Asia       1967    34.0 11537966      836.
## 5 Afghanistan Asia       1972    36.1 13079460      740.
## 6 Afghanistan Asia       1977    38.4 14880372      786.
## # … with 1,698 more rows
```
…
---
count: false

.panel1-health-and-wealth-auto[

```r
gapminder %>%
* filter(year == 2007)
```
]
 
.panel2-health-and-wealth-auto[

```
## # A tibble: 142 × 6
##   country     continent  year lifeExp      pop gdpPercap
##   <fct>       <fct>     <int>   <dbl>    <int>     <dbl>
## 1 Afghanistan Asia       2007    43.8 31889923      975.
## 2 Albania     Europe     2007    76.4  3600523     5937.
## 3 Algeria     Africa     2007    72.3 33333216     6223.
## 4 Angola      Africa     2007    42.7 12420476     4797.
## 5 Argentina   Americas   2007    75.3 40301927    12779.
## 6 Australia   Oceania    2007    81.2 20434176    34435.
## # … with 136 more rows
```
…
