Feature Engineering
…
```r
ames_recipe_1 %>% bake(new_data = ames_train)
```

```
## # A tibble: 1,608 x 4
##   Gr_Liv_Area Latitude Longitude Sale_Price
##         <dbl>    <dbl>     <dbl>      <dbl>
## 1         896     42.1     -93.6     105000
## 2        1329     42.1     -93.6     172000
## 3        1629     42.1     -93.6     189900
## 4        1604     42.1     -93.6     195500
## 5        1804     42.1     -93.6     189000
## 6        1655     42.1     -93.6     175900
## # … with 1,602 more rows
```
…
